^D:\SCHOOL\QNITY\QNITY\ACTORBEHAVIOR.CPP|D:\SCHOOL\QNITY\QNITY\AGENTINPUTCOMPONENT.CPP|D:\SCHOOL\QNITY\QNITY\BASECOMPONENT.CPP|D:\SCHOOL\QNITY\QNITY\COLLIDERCOMPONENT.CPP|D:\SCHOOL\QNITY\QNITY\COMMAND.CPP|D:\SCHOOL\QNITY\QNITY\FONT.CPP|D:\SCHOOL\QNITY\QNITY\FPSCOUNTER.CPP|D:\SCHOOL\QNITY\QNITY\GAMEOBJECT.CPP|D:\SCHOOL\QNITY\QNITY\INPUTCOMPONENT.CPP|D:\SCHOOL\QNITY\QNITY\INPUTMANAGER.CPP|D:\SCHOOL\QNITY\QNITY\LOGGER.CPP|D:\SCHOOL\QNITY\QNITY\MAP.CPP|D:\SCHOOL\QNITY\QNITY\PLAYERINPUTCOMPONENT.CPP|D:\SCHOOL\QNITY\QNITY\PROJECTILECOLLIDER.CPP|D:\SCHOOL\QNITY\QNITY\QNITY.CPP|D:\SCHOOL\QNITY\QNITY\QNITYPCH.CPP|D:\SCHOOL\QNITY\QNITY\RENDERER.CPP|D:\SCHOOL\QNITY\QNITY\RESOURCEMANAGER.CPP|D:\SCHOOL\QNITY\QNITY\RIGIDBODYCOMPONENT.CPP|D:\SCHOOL\QNITY\QNITY\SCENE.CPP|D:\SCHOOL\QNITY\QNITY\SCENEMANAGER.CPP|D:\SCHOOL\QNITY\QNITY\SUBJECTCOMPONENT.CPP|D:\SCHOOL\QNITY\QNITY\TEXTCOMPONENT.CPP|D:\SCHOOL\QNITY\QNITY\TEXTURE2DCOMPONENT.CPP|D:\SCHOOL\QNITY\QNITY\TEXTURE2DTESTS.CPP|D:\SCHOOL\QNITY\QNITY\TEXTUREBANK.CPP|D:\SCHOOL\QNITY\QNITY\TRANSFORM.CPP
D:\SCHOOL\QNITY\QNITY\RELEASE\QNITY.PDB
D:\SCHOOL\QNITY\QNITY\RELEASE\SCENE.OBJ
D:\SCHOOL\QNITY\QNITY\RELEASE\RIGIDBODYCOMPONENT.OBJ
D:\SCHOOL\QNITY\QNITY\RELEASE\RESOURCEMANAGER.OBJ
D:\SCHOOL\QNITY\QNITY\RELEASE\RENDERER.OBJ
D:\SCHOOL\QNITY\QNITY\RELEASE\QNITYPCH.OBJ
D:\SCHOOL\QNITY\QNITY\RELEASE\QNITY.OBJ
D:\SCHOOL\QNITY\QNITY\RELEASE\PROJECTILECOLLIDER.OBJ
D:\SCHOOL\QNITY\QNITY\RELEASE\COLLIDERCOMPONENT.OBJ
D:\SCHOOL\QNITY\QNITY\RELEASE\PLAYERINPUTCOMPONENT.OBJ
D:\SCHOOL\QNITY\QNITY\RELEASE\MAP.OBJ
D:\SCHOOL\QNITY\QNITY\RELEASE\LOGGER.OBJ
D:\SCHOOL\QNITY\QNITY\RELEASE\INPUTMANAGER.OBJ
D:\SCHOOL\QNITY\QNITY\RELEASE\INPUTCOMPONENT.OBJ
D:\SCHOOL\QNITY\QNITY\RELEASE\GAMEOBJECT.OBJ
D:\SCHOOL\QNITY\QNITY\RELEASE\FPSCOUNTER.OBJ
D:\SCHOOL\QNITY\QNITY\RELEASE\FONT.OBJ
D:\SCHOOL\QNITY\QNITY\RELEASE\COMMAND.OBJ
D:\SCHOOL\QNITY\QNITY\RELEASE\BASECOMPONENT.OBJ
D:\SCHOOL\QNITY\QNITY\RELEASE\AGENTINPUTCOMPONENT.OBJ
D:\SCHOOL\QNITY\QNITY\RELEASE\ACTORBEHAVIOR.OBJ
D:\SCHOOL\QNITY\QNITY\RELEASE\TRANSFORM.OBJ
D:\SCHOOL\QNITY\QNITY\RELEASE\TEXTUREBANK.OBJ
D:\SCHOOL\QNITY\QNITY\RELEASE\TEXTURE2DTESTS.OBJ
D:\SCHOOL\QNITY\QNITY\RELEASE\TEXTURE2DCOMPONENT.OBJ
D:\SCHOOL\QNITY\QNITY\RELEASE\TEXTCOMPONENT.OBJ
D:\SCHOOL\QNITY\QNITY\RELEASE\SUBJECTCOMPONENT.OBJ
D:\SCHOOL\QNITY\QNITY\RELEASE\SCENEMANAGER.OBJ
^D:\SCHOOL\QNITY\QNITY\ACTORBEHAVIOR.CPP
D:\SCHOOL\QNITY\QNITY\RELEASE\QNITY.PDB
^D:\SCHOOL\QNITY\QNITY\AGENTINPUTCOMPONENT.CPP
D:\SCHOOL\QNITY\QNITY\RELEASE\QNITY.PDB
^D:\SCHOOL\QNITY\QNITY\BASECOMPONENT.CPP
D:\SCHOOL\QNITY\QNITY\RELEASE\QNITY.PDB
^D:\SCHOOL\QNITY\QNITY\COMMAND.CPP
D:\SCHOOL\QNITY\QNITY\RELEASE\QNITY.PDB
^D:\SCHOOL\QNITY\QNITY\FONT.CPP
D:\SCHOOL\QNITY\QNITY\RELEASE\QNITY.PDB
^D:\SCHOOL\QNITY\QNITY\FPSCOUNTER.CPP
D:\SCHOOL\QNITY\QNITY\RELEASE\QNITY.PDB
^D:\SCHOOL\QNITY\QNITY\GAMEOBJECT.CPP
D:\SCHOOL\QNITY\QNITY\RELEASE\QNITY.PDB
^D:\SCHOOL\QNITY\QNITY\INPUTCOMPONENT.CPP
D:\SCHOOL\QNITY\QNITY\RELEASE\QNITY.PDB
^D:\SCHOOL\QNITY\QNITY\INPUTMANAGER.CPP
D:\SCHOOL\QNITY\QNITY\RELEASE\QNITY.PDB
^D:\SCHOOL\QNITY\QNITY\LOGGER.CPP
D:\SCHOOL\QNITY\QNITY\RELEASE\QNITY.PDB
^D:\SCHOOL\QNITY\QNITY\MAP.CPP
D:\SCHOOL\QNITY\QNITY\RELEASE\QNITY.PDB
^D:\SCHOOL\QNITY\QNITY\PLAYERINPUTCOMPONENT.CPP
D:\SCHOOL\QNITY\QNITY\RELEASE\QNITY.PDB
^D:\SCHOOL\QNITY\QNITY\COLLIDERCOMPONENT.CPP
D:\SCHOOL\QNITY\QNITY\RELEASE\QNITY.PDB
^D:\SCHOOL\QNITY\QNITY\PROJECTILECOLLIDER.CPP
D:\SCHOOL\QNITY\QNITY\RELEASE\QNITY.PDB
^D:\SCHOOL\QNITY\QNITY\QNITYPCH.CPP
D:\SCHOOL\QNITY\QNITY\RELEASE\QNITY.PDB
^D:\SCHOOL\QNITY\QNITY\RENDERER.CPP
D:\SCHOOL\QNITY\QNITY\RELEASE\QNITY.PDB
^D:\SCHOOL\QNITY\QNITY\RESOURCEMANAGER.CPP
D:\SCHOOL\QNITY\QNITY\RELEASE\QNITY.PDB
^D:\SCHOOL\QNITY\QNITY\RIGIDBODYCOMPONENT.CPP
D:\SCHOOL\QNITY\QNITY\RELEASE\QNITY.PDB
^D:\SCHOOL\QNITY\QNITY\SCENE.CPP
D:\SCHOOL\QNITY\QNITY\RELEASE\QNITY.PDB
^D:\SCHOOL\QNITY\QNITY\SCENEMANAGER.CPP
D:\SCHOOL\QNITY\QNITY\RELEASE\QNITY.PDB
^D:\SCHOOL\QNITY\QNITY\SUBJECTCOMPONENT.CPP
D:\SCHOOL\QNITY\QNITY\RELEASE\QNITY.PDB
^D:\SCHOOL\QNITY\QNITY\TEXTCOMPONENT.CPP
D:\SCHOOL\QNITY\QNITY\RELEASE\QNITY.PDB
^D:\SCHOOL\QNITY\QNITY\TEXTURE2DCOMPONENT.CPP
D:\SCHOOL\QNITY\QNITY\RELEASE\QNITY.PDB
^D:\SCHOOL\QNITY\QNITY\TEXTURE2DTESTS.CPP
D:\SCHOOL\QNITY\QNITY\RELEASE\QNITY.PDB
^D:\SCHOOL\QNITY\QNITY\TEXTUREBANK.CPP
D:\SCHOOL\QNITY\QNITY\RELEASE\QNITY.PDB
^D:\SCHOOL\QNITY\QNITY\TRANSFORM.CPP
D:\SCHOOL\QNITY\QNITY\RELEASE\QNITY.PDB
^D:\SCHOOL\QNITY\QNITY\QNITY.CPP
D:\SCHOOL\QNITY\QNITY\RELEASE\QNITY.PDB
D:\SCHOOL\QNITY\QNITY\RELEASE\QNITY.OBJ
