^D:\SCHOOL\QNITY\QNITY\ACTORBEHAVIOR.CPP
/c /I"D:\SCHOOL\QNITY\3RDPARTY\VISUAL LEAK DETECTOR\INCLUDE" /ID:\SCHOOL\QNITY\3RDPARTY\SDL2_TTF\INCLUDE /ID:\SCHOOL\QNITY\3RDPARTY\SDL2_IMAGE\INCLUDE /ID:\SCHOOL\QNITY\3RDPARTY\GLM /ID:\SCHOOL\QNITY\3RDPARTY\SDL2\INCLUDE /ID:\SCHOOL\QNITY\3RDPARTY\CATCH2 /I"C:\PROGRAM FILES (X86)\VISUAL LEAK DETECTOR\INCLUDE" /ZI /JMC /nologo /W4 /WX /diagnostics:column /sdl /Od /Oy- /D _DEBUG /D _CONSOLE /D _UNICODE /D UNICODE /Gm- /EHsc /RTC1 /MDd /GS /fp:precise /permissive- /Zc:wchar_t /Zc:forScope /Zc:inline /Fo"DEBUG\\" /Fd"DEBUG\QNITY.PDB" /Gd /TP /analyze- /FC D:\SCHOOL\QNITY\QNITY\ACTORBEHAVIOR.CPP
^D:\SCHOOL\QNITY\QNITY\AGENTINPUTCOMPONENT.CPP
/c /I"D:\SCHOOL\QNITY\3RDPARTY\VISUAL LEAK DETECTOR\INCLUDE" /ID:\SCHOOL\QNITY\3RDPARTY\SDL2_TTF\INCLUDE /ID:\SCHOOL\QNITY\3RDPARTY\SDL2_IMAGE\INCLUDE /ID:\SCHOOL\QNITY\3RDPARTY\GLM /ID:\SCHOOL\QNITY\3RDPARTY\SDL2\INCLUDE /ID:\SCHOOL\QNITY\3RDPARTY\CATCH2 /I"C:\PROGRAM FILES (X86)\VISUAL LEAK DETECTOR\INCLUDE" /ZI /JMC /nologo /W4 /WX /diagnostics:column /sdl /Od /Oy- /D _DEBUG /D _CONSOLE /D _UNICODE /D UNICODE /Gm- /EHsc /RTC1 /MDd /GS /fp:precise /permissive- /Zc:wchar_t /Zc:forScope /Zc:inline /Fo"DEBUG\\" /Fd"DEBUG\QNITY.PDB" /Gd /TP /analyze- /FC D:\SCHOOL\QNITY\QNITY\AGENTINPUTCOMPONENT.CPP
^D:\SCHOOL\QNITY\QNITY\BASECOMPONENT.CPP
/c /I"D:\SCHOOL\QNITY\3RDPARTY\VISUAL LEAK DETECTOR\INCLUDE" /ID:\SCHOOL\QNITY\3RDPARTY\SDL2_TTF\INCLUDE /ID:\SCHOOL\QNITY\3RDPARTY\SDL2_IMAGE\INCLUDE /ID:\SCHOOL\QNITY\3RDPARTY\GLM /ID:\SCHOOL\QNITY\3RDPARTY\SDL2\INCLUDE /ID:\SCHOOL\QNITY\3RDPARTY\CATCH2 /I"C:\PROGRAM FILES (X86)\VISUAL LEAK DETECTOR\INCLUDE" /ZI /JMC /nologo /W4 /WX /diagnostics:column /sdl /Od /Oy- /D _DEBUG /D _CONSOLE /D _UNICODE /D UNICODE /Gm- /EHsc /RTC1 /MDd /GS /fp:precise /permissive- /Zc:wchar_t /Zc:forScope /Zc:inline /Fo"DEBUG\\" /Fd"DEBUG\QNITY.PDB" /Gd /TP /analyze- /FC D:\SCHOOL\QNITY\QNITY\BASECOMPONENT.CPP
^D:\SCHOOL\QNITY\QNITY\COMMAND.CPP
/c /I"D:\SCHOOL\QNITY\3RDPARTY\VISUAL LEAK DETECTOR\INCLUDE" /ID:\SCHOOL\QNITY\3RDPARTY\SDL2_TTF\INCLUDE /ID:\SCHOOL\QNITY\3RDPARTY\SDL2_IMAGE\INCLUDE /ID:\SCHOOL\QNITY\3RDPARTY\GLM /ID:\SCHOOL\QNITY\3RDPARTY\SDL2\INCLUDE /ID:\SCHOOL\QNITY\3RDPARTY\CATCH2 /I"C:\PROGRAM FILES (X86)\VISUAL LEAK DETECTOR\INCLUDE" /ZI /JMC /nologo /W4 /WX /diagnostics:column /sdl /Od /Oy- /D _DEBUG /D _CONSOLE /D _UNICODE /D UNICODE /Gm- /EHsc /RTC1 /MDd /GS /fp:precise /permissive- /Zc:wchar_t /Zc:forScope /Zc:inline /Fo"DEBUG\\" /Fd"DEBUG\QNITY.PDB" /Gd /TP /analyze- /FC D:\SCHOOL\QNITY\QNITY\COMMAND.CPP
^D:\SCHOOL\QNITY\QNITY\FONT.CPP
/c /I"D:\SCHOOL\QNITY\3RDPARTY\VISUAL LEAK DETECTOR\INCLUDE" /ID:\SCHOOL\QNITY\3RDPARTY\SDL2_TTF\INCLUDE /ID:\SCHOOL\QNITY\3RDPARTY\SDL2_IMAGE\INCLUDE /ID:\SCHOOL\QNITY\3RDPARTY\GLM /ID:\SCHOOL\QNITY\3RDPARTY\SDL2\INCLUDE /ID:\SCHOOL\QNITY\3RDPARTY\CATCH2 /I"C:\PROGRAM FILES (X86)\VISUAL LEAK DETECTOR\INCLUDE" /ZI /JMC /nologo /W4 /WX /diagnostics:column /sdl /Od /Oy- /D _DEBUG /D _CONSOLE /D _UNICODE /D UNICODE /Gm- /EHsc /RTC1 /MDd /GS /fp:precise /permissive- /Zc:wchar_t /Zc:forScope /Zc:inline /Fo"DEBUG\\" /Fd"DEBUG\QNITY.PDB" /Gd /TP /analyze- /FC D:\SCHOOL\QNITY\QNITY\FONT.CPP
^D:\SCHOOL\QNITY\QNITY\FPSCOUNTER.CPP
/c /I"D:\SCHOOL\QNITY\3RDPARTY\VISUAL LEAK DETECTOR\INCLUDE" /ID:\SCHOOL\QNITY\3RDPARTY\SDL2_TTF\INCLUDE /ID:\SCHOOL\QNITY\3RDPARTY\SDL2_IMAGE\INCLUDE /ID:\SCHOOL\QNITY\3RDPARTY\GLM /ID:\SCHOOL\QNITY\3RDPARTY\SDL2\INCLUDE /ID:\SCHOOL\QNITY\3RDPARTY\CATCH2 /I"C:\PROGRAM FILES (X86)\VISUAL LEAK DETECTOR\INCLUDE" /ZI /JMC /nologo /W4 /WX /diagnostics:column /sdl /Od /Oy- /D _DEBUG /D _CONSOLE /D _UNICODE /D UNICODE /Gm- /EHsc /RTC1 /MDd /GS /fp:precise /permissive- /Zc:wchar_t /Zc:forScope /Zc:inline /Fo"DEBUG\\" /Fd"DEBUG\QNITY.PDB" /Gd /TP /analyze- /FC D:\SCHOOL\QNITY\QNITY\FPSCOUNTER.CPP
^D:\SCHOOL\QNITY\QNITY\GAMEOBJECT.CPP
/c /I"D:\SCHOOL\QNITY\3RDPARTY\VISUAL LEAK DETECTOR\INCLUDE" /ID:\SCHOOL\QNITY\3RDPARTY\SDL2_TTF\INCLUDE /ID:\SCHOOL\QNITY\3RDPARTY\SDL2_IMAGE\INCLUDE /ID:\SCHOOL\QNITY\3RDPARTY\GLM /ID:\SCHOOL\QNITY\3RDPARTY\SDL2\INCLUDE /ID:\SCHOOL\QNITY\3RDPARTY\CATCH2 /I"C:\PROGRAM FILES (X86)\VISUAL LEAK DETECTOR\INCLUDE" /ZI /JMC /nologo /W4 /WX /diagnostics:column /sdl /Od /Oy- /D _DEBUG /D _CONSOLE /D _UNICODE /D UNICODE /Gm- /EHsc /RTC1 /MDd /GS /fp:precise /permissive- /Zc:wchar_t /Zc:forScope /Zc:inline /Fo"DEBUG\\" /Fd"DEBUG\QNITY.PDB" /Gd /TP /analyze- /FC D:\SCHOOL\QNITY\QNITY\GAMEOBJECT.CPP
^D:\SCHOOL\QNITY\QNITY\INPUTCOMPONENT.CPP
/c /I"D:\SCHOOL\QNITY\3RDPARTY\VISUAL LEAK DETECTOR\INCLUDE" /ID:\SCHOOL\QNITY\3RDPARTY\SDL2_TTF\INCLUDE /ID:\SCHOOL\QNITY\3RDPARTY\SDL2_IMAGE\INCLUDE /ID:\SCHOOL\QNITY\3RDPARTY\GLM /ID:\SCHOOL\QNITY\3RDPARTY\SDL2\INCLUDE /ID:\SCHOOL\QNITY\3RDPARTY\CATCH2 /I"C:\PROGRAM FILES (X86)\VISUAL LEAK DETECTOR\INCLUDE" /ZI /JMC /nologo /W4 /WX /diagnostics:column /sdl /Od /Oy- /D _DEBUG /D _CONSOLE /D _UNICODE /D UNICODE /Gm- /EHsc /RTC1 /MDd /GS /fp:precise /permissive- /Zc:wchar_t /Zc:forScope /Zc:inline /Fo"DEBUG\\" /Fd"DEBUG\QNITY.PDB" /Gd /TP /analyze- /FC D:\SCHOOL\QNITY\QNITY\INPUTCOMPONENT.CPP
^D:\SCHOOL\QNITY\QNITY\INPUTMANAGER.CPP
/c /I"D:\SCHOOL\QNITY\3RDPARTY\VISUAL LEAK DETECTOR\INCLUDE" /ID:\SCHOOL\QNITY\3RDPARTY\SDL2_TTF\INCLUDE /ID:\SCHOOL\QNITY\3RDPARTY\SDL2_IMAGE\INCLUDE /ID:\SCHOOL\QNITY\3RDPARTY\GLM /ID:\SCHOOL\QNITY\3RDPARTY\SDL2\INCLUDE /ID:\SCHOOL\QNITY\3RDPARTY\CATCH2 /I"C:\PROGRAM FILES (X86)\VISUAL LEAK DETECTOR\INCLUDE" /ZI /JMC /nologo /W4 /WX /diagnostics:column /sdl /Od /Oy- /D _DEBUG /D _CONSOLE /D _UNICODE /D UNICODE /Gm- /EHsc /RTC1 /MDd /GS /fp:precise /permissive- /Zc:wchar_t /Zc:forScope /Zc:inline /Fo"DEBUG\\" /Fd"DEBUG\QNITY.PDB" /Gd /TP /analyze- /FC D:\SCHOOL\QNITY\QNITY\INPUTMANAGER.CPP
^D:\SCHOOL\QNITY\QNITY\LOGGER.CPP
/c /I"D:\SCHOOL\QNITY\3RDPARTY\VISUAL LEAK DETECTOR\INCLUDE" /ID:\SCHOOL\QNITY\3RDPARTY\SDL2_TTF\INCLUDE /ID:\SCHOOL\QNITY\3RDPARTY\SDL2_IMAGE\INCLUDE /ID:\SCHOOL\QNITY\3RDPARTY\GLM /ID:\SCHOOL\QNITY\3RDPARTY\SDL2\INCLUDE /ID:\SCHOOL\QNITY\3RDPARTY\CATCH2 /I"C:\PROGRAM FILES (X86)\VISUAL LEAK DETECTOR\INCLUDE" /ZI /JMC /nologo /W4 /WX /diagnostics:column /sdl /Od /Oy- /D _DEBUG /D _CONSOLE /D _UNICODE /D UNICODE /Gm- /EHsc /RTC1 /MDd /GS /fp:precise /permissive- /Zc:wchar_t /Zc:forScope /Zc:inline /Fo"DEBUG\\" /Fd"DEBUG\QNITY.PDB" /Gd /TP /analyze- /FC D:\SCHOOL\QNITY\QNITY\LOGGER.CPP
^D:\SCHOOL\QNITY\QNITY\MAP.CPP
/c /I"D:\SCHOOL\QNITY\3RDPARTY\VISUAL LEAK DETECTOR\INCLUDE" /ID:\SCHOOL\QNITY\3RDPARTY\SDL2_TTF\INCLUDE /ID:\SCHOOL\QNITY\3RDPARTY\SDL2_IMAGE\INCLUDE /ID:\SCHOOL\QNITY\3RDPARTY\GLM /ID:\SCHOOL\QNITY\3RDPARTY\SDL2\INCLUDE /ID:\SCHOOL\QNITY\3RDPARTY\CATCH2 /I"C:\PROGRAM FILES (X86)\VISUAL LEAK DETECTOR\INCLUDE" /ZI /JMC /nologo /W4 /WX /diagnostics:column /sdl /Od /Oy- /D _DEBUG /D _CONSOLE /D _UNICODE /D UNICODE /Gm- /EHsc /RTC1 /MDd /GS /fp:precise /permissive- /Zc:wchar_t /Zc:forScope /Zc:inline /Fo"DEBUG\\" /Fd"DEBUG\QNITY.PDB" /Gd /TP /analyze- /FC D:\SCHOOL\QNITY\QNITY\MAP.CPP
^D:\SCHOOL\QNITY\QNITY\PLAYERINPUTCOMPONENT.CPP
/c /I"D:\SCHOOL\QNITY\3RDPARTY\VISUAL LEAK DETECTOR\INCLUDE" /ID:\SCHOOL\QNITY\3RDPARTY\SDL2_TTF\INCLUDE /ID:\SCHOOL\QNITY\3RDPARTY\SDL2_IMAGE\INCLUDE /ID:\SCHOOL\QNITY\3RDPARTY\GLM /ID:\SCHOOL\QNITY\3RDPARTY\SDL2\INCLUDE /ID:\SCHOOL\QNITY\3RDPARTY\CATCH2 /I"C:\PROGRAM FILES (X86)\VISUAL LEAK DETECTOR\INCLUDE" /ZI /JMC /nologo /W4 /WX /diagnostics:column /sdl /Od /Oy- /D _DEBUG /D _CONSOLE /D _UNICODE /D UNICODE /Gm- /EHsc /RTC1 /MDd /GS /fp:precise /permissive- /Zc:wchar_t /Zc:forScope /Zc:inline /Fo"DEBUG\\" /Fd"DEBUG\QNITY.PDB" /Gd /TP /analyze- /FC D:\SCHOOL\QNITY\QNITY\PLAYERINPUTCOMPONENT.CPP
^D:\SCHOOL\QNITY\QNITY\COLLIDERCOMPONENT.CPP
/c /I"D:\SCHOOL\QNITY\3RDPARTY\VISUAL LEAK DETECTOR\INCLUDE" /ID:\SCHOOL\QNITY\3RDPARTY\SDL2_TTF\INCLUDE /ID:\SCHOOL\QNITY\3RDPARTY\SDL2_IMAGE\INCLUDE /ID:\SCHOOL\QNITY\3RDPARTY\GLM /ID:\SCHOOL\QNITY\3RDPARTY\SDL2\INCLUDE /ID:\SCHOOL\QNITY\3RDPARTY\CATCH2 /I"C:\PROGRAM FILES (X86)\VISUAL LEAK DETECTOR\INCLUDE" /ZI /JMC /nologo /W4 /WX /diagnostics:column /sdl /Od /Oy- /D _DEBUG /D _CONSOLE /D _UNICODE /D UNICODE /Gm- /EHsc /RTC1 /MDd /GS /fp:precise /permissive- /Zc:wchar_t /Zc:forScope /Zc:inline /Fo"DEBUG\\" /Fd"DEBUG\QNITY.PDB" /Gd /TP /analyze- /FC D:\SCHOOL\QNITY\QNITY\COLLIDERCOMPONENT.CPP
^D:\SCHOOL\QNITY\QNITY\PROJECTILECOLLIDER.CPP
/c /I"D:\SCHOOL\QNITY\3RDPARTY\VISUAL LEAK DETECTOR\INCLUDE" /ID:\SCHOOL\QNITY\3RDPARTY\SDL2_TTF\INCLUDE /ID:\SCHOOL\QNITY\3RDPARTY\SDL2_IMAGE\INCLUDE /ID:\SCHOOL\QNITY\3RDPARTY\GLM /ID:\SCHOOL\QNITY\3RDPARTY\SDL2\INCLUDE /ID:\SCHOOL\QNITY\3RDPARTY\CATCH2 /I"C:\PROGRAM FILES (X86)\VISUAL LEAK DETECTOR\INCLUDE" /ZI /JMC /nologo /W4 /WX /diagnostics:column /sdl /Od /Oy- /D _DEBUG /D _CONSOLE /D _UNICODE /D UNICODE /Gm- /EHsc /RTC1 /MDd /GS /fp:precise /permissive- /Zc:wchar_t /Zc:forScope /Zc:inline /Fo"DEBUG\\" /Fd"DEBUG\QNITY.PDB" /Gd /TP /analyze- /FC D:\SCHOOL\QNITY\QNITY\PROJECTILECOLLIDER.CPP
^D:\SCHOOL\QNITY\QNITY\QNITY.CPP
/c /I"D:\SCHOOL\QNITY\3RDPARTY\VISUAL LEAK DETECTOR\INCLUDE" /ID:\SCHOOL\QNITY\3RDPARTY\SDL2_TTF\INCLUDE /ID:\SCHOOL\QNITY\3RDPARTY\SDL2_IMAGE\INCLUDE /ID:\SCHOOL\QNITY\3RDPARTY\GLM /ID:\SCHOOL\QNITY\3RDPARTY\SDL2\INCLUDE /ID:\SCHOOL\QNITY\3RDPARTY\CATCH2 /I"C:\PROGRAM FILES (X86)\VISUAL LEAK DETECTOR\INCLUDE" /ZI /JMC /nologo /W4 /WX /diagnostics:column /sdl /Od /Oy- /D _DEBUG /D _CONSOLE /D _UNICODE /D UNICODE /Gm- /EHsc /RTC1 /MDd /GS /fp:precise /permissive- /Zc:wchar_t /Zc:forScope /Zc:inline /Fo"DEBUG\\" /Fd"DEBUG\QNITY.PDB" /Gd /TP /analyze- /FC D:\SCHOOL\QNITY\QNITY\QNITY.CPP
^D:\SCHOOL\QNITY\QNITY\QNITYPCH.CPP
/c /I"D:\SCHOOL\QNITY\3RDPARTY\VISUAL LEAK DETECTOR\INCLUDE" /ID:\SCHOOL\QNITY\3RDPARTY\SDL2_TTF\INCLUDE /ID:\SCHOOL\QNITY\3RDPARTY\SDL2_IMAGE\INCLUDE /ID:\SCHOOL\QNITY\3RDPARTY\GLM /ID:\SCHOOL\QNITY\3RDPARTY\SDL2\INCLUDE /ID:\SCHOOL\QNITY\3RDPARTY\CATCH2 /I"C:\PROGRAM FILES (X86)\VISUAL LEAK DETECTOR\INCLUDE" /ZI /JMC /nologo /W4 /WX /diagnostics:column /sdl /Od /Oy- /D _DEBUG /D _CONSOLE /D _UNICODE /D UNICODE /Gm- /EHsc /RTC1 /MDd /GS /fp:precise /permissive- /Zc:wchar_t /Zc:forScope /Zc:inline /Fo"DEBUG\\" /Fd"DEBUG\QNITY.PDB" /Gd /TP /analyze- /FC D:\SCHOOL\QNITY\QNITY\QNITYPCH.CPP
^D:\SCHOOL\QNITY\QNITY\RENDERER.CPP
/c /I"D:\SCHOOL\QNITY\3RDPARTY\VISUAL LEAK DETECTOR\INCLUDE" /ID:\SCHOOL\QNITY\3RDPARTY\SDL2_TTF\INCLUDE /ID:\SCHOOL\QNITY\3RDPARTY\SDL2_IMAGE\INCLUDE /ID:\SCHOOL\QNITY\3RDPARTY\GLM /ID:\SCHOOL\QNITY\3RDPARTY\SDL2\INCLUDE /ID:\SCHOOL\QNITY\3RDPARTY\CATCH2 /I"C:\PROGRAM FILES (X86)\VISUAL LEAK DETECTOR\INCLUDE" /ZI /JMC /nologo /W4 /WX /diagnostics:column /sdl /Od /Oy- /D _DEBUG /D _CONSOLE /D _UNICODE /D UNICODE /Gm- /EHsc /RTC1 /MDd /GS /fp:precise /permissive- /Zc:wchar_t /Zc:forScope /Zc:inline /Fo"DEBUG\\" /Fd"DEBUG\QNITY.PDB" /Gd /TP /analyze- /FC D:\SCHOOL\QNITY\QNITY\RENDERER.CPP
^D:\SCHOOL\QNITY\QNITY\RESOURCEMANAGER.CPP
/c /I"D:\SCHOOL\QNITY\3RDPARTY\VISUAL LEAK DETECTOR\INCLUDE" /ID:\SCHOOL\QNITY\3RDPARTY\SDL2_TTF\INCLUDE /ID:\SCHOOL\QNITY\3RDPARTY\SDL2_IMAGE\INCLUDE /ID:\SCHOOL\QNITY\3RDPARTY\GLM /ID:\SCHOOL\QNITY\3RDPARTY\SDL2\INCLUDE /ID:\SCHOOL\QNITY\3RDPARTY\CATCH2 /I"C:\PROGRAM FILES (X86)\VISUAL LEAK DETECTOR\INCLUDE" /ZI /JMC /nologo /W4 /WX /diagnostics:column /sdl /Od /Oy- /D _DEBUG /D _CONSOLE /D _UNICODE /D UNICODE /Gm- /EHsc /RTC1 /MDd /GS /fp:precise /permissive- /Zc:wchar_t /Zc:forScope /Zc:inline /Fo"DEBUG\\" /Fd"DEBUG\QNITY.PDB" /Gd /TP /analyze- /FC D:\SCHOOL\QNITY\QNITY\RESOURCEMANAGER.CPP
^D:\SCHOOL\QNITY\QNITY\RIGIDBODYCOMPONENT.CPP
/c /I"D:\SCHOOL\QNITY\3RDPARTY\VISUAL LEAK DETECTOR\INCLUDE" /ID:\SCHOOL\QNITY\3RDPARTY\SDL2_TTF\INCLUDE /ID:\SCHOOL\QNITY\3RDPARTY\SDL2_IMAGE\INCLUDE /ID:\SCHOOL\QNITY\3RDPARTY\GLM /ID:\SCHOOL\QNITY\3RDPARTY\SDL2\INCLUDE /ID:\SCHOOL\QNITY\3RDPARTY\CATCH2 /I"C:\PROGRAM FILES (X86)\VISUAL LEAK DETECTOR\INCLUDE" /ZI /JMC /nologo /W4 /WX /diagnostics:column /sdl /Od /Oy- /D _DEBUG /D _CONSOLE /D _UNICODE /D UNICODE /Gm- /EHsc /RTC1 /MDd /GS /fp:precise /permissive- /Zc:wchar_t /Zc:forScope /Zc:inline /Fo"DEBUG\\" /Fd"DEBUG\QNITY.PDB" /Gd /TP /analyze- /FC D:\SCHOOL\QNITY\QNITY\RIGIDBODYCOMPONENT.CPP
^D:\SCHOOL\QNITY\QNITY\SCENE.CPP
/c /I"D:\SCHOOL\QNITY\3RDPARTY\VISUAL LEAK DETECTOR\INCLUDE" /ID:\SCHOOL\QNITY\3RDPARTY\SDL2_TTF\INCLUDE /ID:\SCHOOL\QNITY\3RDPARTY\SDL2_IMAGE\INCLUDE /ID:\SCHOOL\QNITY\3RDPARTY\GLM /ID:\SCHOOL\QNITY\3RDPARTY\SDL2\INCLUDE /ID:\SCHOOL\QNITY\3RDPARTY\CATCH2 /I"C:\PROGRAM FILES (X86)\VISUAL LEAK DETECTOR\INCLUDE" /ZI /JMC /nologo /W4 /WX /diagnostics:column /sdl /Od /Oy- /D _DEBUG /D _CONSOLE /D _UNICODE /D UNICODE /Gm- /EHsc /RTC1 /MDd /GS /fp:precise /permissive- /Zc:wchar_t /Zc:forScope /Zc:inline /Fo"DEBUG\\" /Fd"DEBUG\QNITY.PDB" /Gd /TP /analyze- /FC D:\SCHOOL\QNITY\QNITY\SCENE.CPP
^D:\SCHOOL\QNITY\QNITY\SCENEMANAGER.CPP
/c /I"D:\SCHOOL\QNITY\3RDPARTY\VISUAL LEAK DETECTOR\INCLUDE" /ID:\SCHOOL\QNITY\3RDPARTY\SDL2_TTF\INCLUDE /ID:\SCHOOL\QNITY\3RDPARTY\SDL2_IMAGE\INCLUDE /ID:\SCHOOL\QNITY\3RDPARTY\GLM /ID:\SCHOOL\QNITY\3RDPARTY\SDL2\INCLUDE /ID:\SCHOOL\QNITY\3RDPARTY\CATCH2 /I"C:\PROGRAM FILES (X86)\VISUAL LEAK DETECTOR\INCLUDE" /ZI /JMC /nologo /W4 /WX /diagnostics:column /sdl /Od /Oy- /D _DEBUG /D _CONSOLE /D _UNICODE /D UNICODE /Gm- /EHsc /RTC1 /MDd /GS /fp:precise /permissive- /Zc:wchar_t /Zc:forScope /Zc:inline /Fo"DEBUG\\" /Fd"DEBUG\QNITY.PDB" /Gd /TP /analyze- /FC D:\SCHOOL\QNITY\QNITY\SCENEMANAGER.CPP
^D:\SCHOOL\QNITY\QNITY\SUBJECTCOMPONENT.CPP
/c /I"D:\SCHOOL\QNITY\3RDPARTY\VISUAL LEAK DETECTOR\INCLUDE" /ID:\SCHOOL\QNITY\3RDPARTY\SDL2_TTF\INCLUDE /ID:\SCHOOL\QNITY\3RDPARTY\SDL2_IMAGE\INCLUDE /ID:\SCHOOL\QNITY\3RDPARTY\GLM /ID:\SCHOOL\QNITY\3RDPARTY\SDL2\INCLUDE /ID:\SCHOOL\QNITY\3RDPARTY\CATCH2 /I"C:\PROGRAM FILES (X86)\VISUAL LEAK DETECTOR\INCLUDE" /ZI /JMC /nologo /W4 /WX /diagnostics:column /sdl /Od /Oy- /D _DEBUG /D _CONSOLE /D _UNICODE /D UNICODE /Gm- /EHsc /RTC1 /MDd /GS /fp:precise /permissive- /Zc:wchar_t /Zc:forScope /Zc:inline /Fo"DEBUG\\" /Fd"DEBUG\QNITY.PDB" /Gd /TP /analyze- /FC D:\SCHOOL\QNITY\QNITY\SUBJECTCOMPONENT.CPP
^D:\SCHOOL\QNITY\QNITY\TEXTCOMPONENT.CPP
/c /I"D:\SCHOOL\QNITY\3RDPARTY\VISUAL LEAK DETECTOR\INCLUDE" /ID:\SCHOOL\QNITY\3RDPARTY\SDL2_TTF\INCLUDE /ID:\SCHOOL\QNITY\3RDPARTY\SDL2_IMAGE\INCLUDE /ID:\SCHOOL\QNITY\3RDPARTY\GLM /ID:\SCHOOL\QNITY\3RDPARTY\SDL2\INCLUDE /ID:\SCHOOL\QNITY\3RDPARTY\CATCH2 /I"C:\PROGRAM FILES (X86)\VISUAL LEAK DETECTOR\INCLUDE" /ZI /JMC /nologo /W4 /WX /diagnostics:column /sdl /Od /Oy- /D _DEBUG /D _CONSOLE /D _UNICODE /D UNICODE /Gm- /EHsc /RTC1 /MDd /GS /fp:precise /permissive- /Zc:wchar_t /Zc:forScope /Zc:inline /Fo"DEBUG\\" /Fd"DEBUG\QNITY.PDB" /Gd /TP /analyze- /FC D:\SCHOOL\QNITY\QNITY\TEXTCOMPONENT.CPP
^D:\SCHOOL\QNITY\QNITY\TEXTURE2DCOMPONENT.CPP
/c /I"D:\SCHOOL\QNITY\3RDPARTY\VISUAL LEAK DETECTOR\INCLUDE" /ID:\SCHOOL\QNITY\3RDPARTY\SDL2_TTF\INCLUDE /ID:\SCHOOL\QNITY\3RDPARTY\SDL2_IMAGE\INCLUDE /ID:\SCHOOL\QNITY\3RDPARTY\GLM /ID:\SCHOOL\QNITY\3RDPARTY\SDL2\INCLUDE /ID:\SCHOOL\QNITY\3RDPARTY\CATCH2 /I"C:\PROGRAM FILES (X86)\VISUAL LEAK DETECTOR\INCLUDE" /ZI /JMC /nologo /W4 /WX /diagnostics:column /sdl /Od /Oy- /D _DEBUG /D _CONSOLE /D _UNICODE /D UNICODE /Gm- /EHsc /RTC1 /MDd /GS /fp:precise /permissive- /Zc:wchar_t /Zc:forScope /Zc:inline /Fo"DEBUG\\" /Fd"DEBUG\QNITY.PDB" /Gd /TP /analyze- /FC D:\SCHOOL\QNITY\QNITY\TEXTURE2DCOMPONENT.CPP
^D:\SCHOOL\QNITY\QNITY\TEXTURE2DTESTS.CPP
/c /I"D:\SCHOOL\QNITY\3RDPARTY\VISUAL LEAK DETECTOR\INCLUDE" /ID:\SCHOOL\QNITY\3RDPARTY\SDL2_TTF\INCLUDE /ID:\SCHOOL\QNITY\3RDPARTY\SDL2_IMAGE\INCLUDE /ID:\SCHOOL\QNITY\3RDPARTY\GLM /ID:\SCHOOL\QNITY\3RDPARTY\SDL2\INCLUDE /ID:\SCHOOL\QNITY\3RDPARTY\CATCH2 /I"C:\PROGRAM FILES (X86)\VISUAL LEAK DETECTOR\INCLUDE" /ZI /JMC /nologo /W4 /WX /diagnostics:column /sdl /Od /Oy- /D _DEBUG /D _CONSOLE /D _UNICODE /D UNICODE /Gm- /EHsc /RTC1 /MDd /GS /fp:precise /permissive- /Zc:wchar_t /Zc:forScope /Zc:inline /Fo"DEBUG\\" /Fd"DEBUG\QNITY.PDB" /Gd /TP /analyze- /FC D:\SCHOOL\QNITY\QNITY\TEXTURE2DTESTS.CPP
^D:\SCHOOL\QNITY\QNITY\TEXTUREBANK.CPP
/c /I"D:\SCHOOL\QNITY\3RDPARTY\VISUAL LEAK DETECTOR\INCLUDE" /ID:\SCHOOL\QNITY\3RDPARTY\SDL2_TTF\INCLUDE /ID:\SCHOOL\QNITY\3RDPARTY\SDL2_IMAGE\INCLUDE /ID:\SCHOOL\QNITY\3RDPARTY\GLM /ID:\SCHOOL\QNITY\3RDPARTY\SDL2\INCLUDE /ID:\SCHOOL\QNITY\3RDPARTY\CATCH2 /I"C:\PROGRAM FILES (X86)\VISUAL LEAK DETECTOR\INCLUDE" /ZI /JMC /nologo /W4 /WX /diagnostics:column /sdl /Od /Oy- /D _DEBUG /D _CONSOLE /D _UNICODE /D UNICODE /Gm- /EHsc /RTC1 /MDd /GS /fp:precise /permissive- /Zc:wchar_t /Zc:forScope /Zc:inline /Fo"DEBUG\\" /Fd"DEBUG\QNITY.PDB" /Gd /TP /analyze- /FC D:\SCHOOL\QNITY\QNITY\TEXTUREBANK.CPP
^D:\SCHOOL\QNITY\QNITY\TRANSFORM.CPP
/c /I"D:\SCHOOL\QNITY\3RDPARTY\VISUAL LEAK DETECTOR\INCLUDE" /ID:\SCHOOL\QNITY\3RDPARTY\SDL2_TTF\INCLUDE /ID:\SCHOOL\QNITY\3RDPARTY\SDL2_IMAGE\INCLUDE /ID:\SCHOOL\QNITY\3RDPARTY\GLM /ID:\SCHOOL\QNITY\3RDPARTY\SDL2\INCLUDE /ID:\SCHOOL\QNITY\3RDPARTY\CATCH2 /I"C:\PROGRAM FILES (X86)\VISUAL LEAK DETECTOR\INCLUDE" /ZI /JMC /nologo /W4 /WX /diagnostics:column /sdl /Od /Oy- /D _DEBUG /D _CONSOLE /D _UNICODE /D UNICODE /Gm- /EHsc /RTC1 /MDd /GS /fp:precise /permissive- /Zc:wchar_t /Zc:forScope /Zc:inline /Fo"DEBUG\\" /Fd"DEBUG\QNITY.PDB" /Gd /TP /analyze- /FC D:\SCHOOL\QNITY\QNITY\TRANSFORM.CPP
