^D:\SCHOOL\QNITY\BUBBLEBOBBLE\DEBUG\BUBBLE.OBJ|D:\SCHOOL\QNITY\BUBBLEBOBBLE\DEBUG\CHARGECOMMAND.OBJ|D:\SCHOOL\QNITY\BUBBLEBOBBLE\DEBUG\DROPDOWNCOMMAND.OBJ|D:\SCHOOL\QNITY\BUBBLEBOBBLE\DEBUG\ENEMYCOLLIDER.OBJ|D:\SCHOOL\QNITY\BUBBLEBOBBLE\DEBUG\FOODCOLLIDER.OBJ|D:\SCHOOL\QNITY\BUBBLEBOBBLE\DEBUG\JUMPCOMMAND.OBJ|D:\SCHOOL\QNITY\BUBBLEBOBBLE\DEBUG\LEVELOBSERVER.OBJ|D:\SCHOOL\QNITY\BUBBLEBOBBLE\DEBUG\LEVELSCENE.OBJ|D:\SCHOOL\QNITY\BUBBLEBOBBLE\DEBUG\MAIN.OBJ|D:\SCHOOL\QNITY\BUBBLEBOBBLE\DEBUG\MOVECOMMAND.OBJ|D:\SCHOOL\QNITY\BUBBLEBOBBLE\DEBUG\MYGAME.OBJ|D:\SCHOOL\QNITY\BUBBLEBOBBLE\DEBUG\PLAYERBEHAVIOR.OBJ|D:\SCHOOL\QNITY\BUBBLEBOBBLE\DEBUG\PLAYERPROJECTILE.OBJ|D:\SCHOOL\QNITY\BUBBLEBOBBLE\DEBUG\SHOOTCOMMAND.OBJ|D:\SCHOOL\QNITY\BUBBLEBOBBLE\DEBUG\ZENCHANBEHAVIOR.OBJ|D:\SCHOOL\QNITY\BUBBLEBOBBLE\DEBUG\ZENCHANINPUT.OBJ|D:\SCHOOL\QNITY\DEBUG\QNITY.LIB
D:\SCHOOL\QNITY\DEBUG\BUBBLEBOBBLE.ILK
D:\SCHOOL\QNITY\DEBUG\BUBBLEBOBBLE.EXE
D:\SCHOOL\QNITY\DEBUG\BUBBLEBOBBLE.PDB
