d:\school\qnity\bubblebobble\debug\vc142.pdb
d:\school\qnity\bubblebobble\debug\vc142.idb
d:\school\qnity\bubblebobble\debug\zenchaninput.obj
d:\school\qnity\bubblebobble\debug\zenchanbehavior.obj
d:\school\qnity\bubblebobble\debug\shootcommand.obj
d:\school\qnity\bubblebobble\debug\playerprojectile.obj
d:\school\qnity\bubblebobble\debug\playerbehavior.obj
d:\school\qnity\bubblebobble\debug\mygame.obj
d:\school\qnity\bubblebobble\debug\movecommand.obj
d:\school\qnity\bubblebobble\debug\main.obj
d:\school\qnity\bubblebobble\debug\levelscene.obj
d:\school\qnity\bubblebobble\debug\levelobserver.obj
d:\school\qnity\bubblebobble\debug\jumpcommand.obj
d:\school\qnity\bubblebobble\debug\foodcollider.obj
d:\school\qnity\bubblebobble\debug\enemycollider.obj
d:\school\qnity\bubblebobble\debug\dropdowncommand.obj
d:\school\qnity\bubblebobble\debug\chargecommand.obj
d:\school\qnity\bubblebobble\debug\bubble.obj
d:\school\qnity\debug\bubblebobble.ilk
d:\school\qnity\debug\bubblebobble.exe
d:\school\qnity\debug\bubblebobble.pdb
d:\school\qnity\bubblebobble\debug\bubblebobble.tlog\cl.command.1.tlog
d:\school\qnity\bubblebobble\debug\bubblebobble.tlog\cl.read.1.tlog
d:\school\qnity\bubblebobble\debug\bubblebobble.tlog\cl.write.1.tlog
d:\school\qnity\bubblebobble\debug\bubblebobble.tlog\link.command.1.tlog
d:\school\qnity\bubblebobble\debug\bubblebobble.tlog\link.read.1.tlog
d:\school\qnity\bubblebobble\debug\bubblebobble.tlog\link.write.1.tlog
